Introduction to ORFID
…
The plot object produced by marker_tag_plot() is a
ggplot2 object, and can be edited using additional
ggplot2 functions, such as theme().

marker_tag(dat_multi, tag = "0000_000000005972")
#> # A tibble: 1,192 × 5
#>    TAG               ARR                 DUR    GAP        NCD
#>    <chr>             <dttm>              <drtn> <drtn>   <dbl>
#>  1 0000_000000005972 2019-05-17 02:53:47 0 secs  NA secs     2
#>  2 0000_000000005972 2019-05-17 02:53:50 0 secs 3.0 secs     2
#>  3 0000_000000005972 2019-05-17 02:53:53 0 secs 3.0 secs     2
#>  4 0000_000000005972 2019-05-17 02:53:56 0 secs 3.0 secs     2
#>  5 0000_000000005972 2019-05-17 02:53:59 0 secs 2.9 secs     3
#>  6 0000_000000005972 2019-05-17 02:54:02 0 secs 3.0 secs     3
#>  7 0000_000000005972 2019-05-17 02:54:05 0 secs 3.0 secs     3
#>  8 0000_000000005972 2019-05-17 02:54:08 0 secs 3.0 secs     2
#>  9 0000_000000005972 2019-05-17 02:54:11 0 secs 3.0 secs     2
#> 10 0000_000000005972 2019-05-17 02:54:14 0 secs 3.0 secs     2
#> # … with 1,182 more rows
…
direction_summary() has an optional argument
include_stationary. If
include_stationary = TRUE, all detections will be included
in the summary. For example, if a tag is detected multiple times at the
same antenna before making an upwards movement, its first direction is
stationary. If include_stationary = FALSE, only
detections with known direction will be included. For example, if a tag
is detected multiple times at the same antenna before making an upwards
movement, the stationary movements will be ignored and its first
direction will be up.

dir <- tag_direction(dat_multi, LOC_vec = c("downstream_A1", "upstream_A1"))

direction_summary(dir)
#> # A tibble: 55 × 9
#>    TAG                   first_DET           first_LOC     first_DIR
#>    <chr>                 <dttm>              <chr>         <chr>    
#>  1 900_230000009506      2020-07-09 19:33:18 upstream_A1   U        
#>  2 900_226000980150      2020-08-10 16:05:03 downstream_A1 D        
#>  3 900_226000584318      2020-08-11 11:45:02 upstream_A1   U        
#>  4 0000_0000000168273013 2020-08-11 13:35:25 upstream_A1   U        
#>  5 900_230000079824      2020-08-13 00:23:52 upstream_A1   U        
#>  6 900_228000586262      2020-08-13 03:03:13 upstream_A1   U        
#>  7 900_228000369675      2020-08-13 03:46:19 upstream_A1   U        
#>  8 900_228000586311      2020-08-15 21:43:42 upstream_A1   U        
#>  9 900_230000077653      2020-08-15 23:20:40 upstream_A1   U        
#> 10 900_228000369764      2020-08-17 04:42:39 upstream_A1   U        
#>    last_DET            last_LOC      last_DIR tdiff_sec     tdiff_day
#>    <dttm>              <chr>         <chr>    <drtn>            <dbl>
#>  1 2021-08-12 13:49:48 downstream_A1 D        34452990 secs     399. 
#>  2 2020-08-10 17:57:55 upstream_A1   U            6772 secs       0.1
#>  3 2021-08-12 13:51:01 downstream_A1 D        31629959 secs     366. 
#>  4 2021-08-12 13:51:18 downstream_A1 D        31623353 secs     366  
#>  5 2020-09-11 04:15:00 downstream_A1 D         2519468 secs      29.2
#>  6 2020-08-13 03:03:13 upstream_A1   U               0 secs       0  
#>  7 2020-09-14 21:27:48 downstream_A1 D         2828489 secs      32.7
#>  8 2020-08-15 21:43:42 upstream_A1   U               0 secs       0  
#>  9 2020-09-19 23:29:18 downstream_A1 D         3024518 secs      35  
#> 10 2020-09-16 22:10:06 downstream_A1 D         2654847 secs      30.7
#> # … with 45 more rows

direction_summary(dir, include_stationary = TRUE)
#> # A tibble: 64 × 9
#>    TAG                   first_DET           first_LOC     first_DIR
#>    <chr>                 <dttm>              <chr>         <chr>    
#>  1 900_226000584318      2020-06-07 15:59:39 downstream_A1 S        
#>  2 900_230000009506      2020-06-07 16:01:43 downstream_A1 S        
#>  3 900_226000980150      2020-07-09 19:33:37 upstream_A1   S        
#>  4 900_228000541363      2020-08-10 21:12:05 upstream_A1   S        
#>  5 0000_0000000168273013 2020-08-11 13:03:07 downstream_A1 S        
#>  6 0000_0000000183227019 2020-08-11 14:44:11 upstream_A1   S        
#>  7 900_230000079824      2020-08-13 00:23:26 downstream_A1 S        
#>  8 900_228000586262      2020-08-13 03:02:35 downstream_A1 S        
#>  9 900_228000369675      2020-08-13 03:46:00 downstream_A1 S        
#> 10 900_228000586311      2020-08-15 21:43:22 downstream_A1 S        
#>    last_DET            last_LOC      last_DIR tdiff_sec     tdiff_day
#>    <dttm>              <chr>         <chr>    <drtn>            <dbl>
#>  1 2021-08-12 13:51:01 downstream_A1 D        37230682 secs     431. 
#>  2 2021-08-12 13:51:48 downstream_A1 S        37230605 secs     431. 
#>  3 2020-08-11 14:44:36 upstream_A1   S         2833859 secs      32.8
#>  4 2020-08-10 21:12:14 upstream_A1   S               9 secs       0  
#>  5 2021-08-12 13:51:25 downstream_A1 S        31625298 secs     366  
#>  6 2020-08-11 14:44:17 upstream_A1   S               6 secs       0  
#>  7 2020-09-11 04:15:04 downstream_A1 S         2519498 secs      29.2
#>  8 2020-09-18 04:52:05 upstream_A1   S         3116970 secs      36.1
#>  9 2020-09-14 21:27:53 downstream_A1 S         2828513 secs      32.7
#> 10 2020-08-15 21:43:46 upstream_A1   S              24 secs       0  
#> # … with 54 more rows
…
